[
  {
    "outputFileName": "Scripts/dist/css/pages/user-card.min.css",
    "inputFiles": [
      "Scripts/dist/css/pages/user-card.css"
    ]
  },
  {
    "outputFileName": "Content/assets/node_modules/Magnific-Popup-master/dist/magnific-popup.min.css",
    "inputFiles": [
      "Content/assets/node_modules/Magnific-Popup-master/dist/magnific-popup.css"
    ]
  }
]
